Calculate entry point risk — calc_entry_point_risk • riskintroanalysis
…
extract_point_risk(ri_entry_points)
#> Simple feature collection with 71 features and 6 fields
#> Geometry type: POINT
#> Dimension:     XY
#> Bounding box:  xmin: 7.572541 ymin: 31.94455 xmax: 11.59319 ymax: 37.26487
#> Geodetic CRS:  WGS 84
#> # A tibble: 71 × 7
#>    point_id point_name             point_emission_risk mode  type  points_label
#>    <chr>    <chr>                                <dbl> <chr> <chr> <list>      
#>  1 ep-00001 aeroport Djerba                       4.17 C     AIR   <html [1]>  
#>  2 ep-00002 aeroport enfidha                      3.31 C     AIR   <html [1]>  
#>  3 ep-00003 aeroport monastir                     3.75 C     AIR   <html [1]>  
#>  4 ep-00004 aeroport sfax                         3.17 C     AIR   <html [1]>  
#>  5 ep-00005 aeroport tabarka                      4    C     AIR   <html [1]>  
#>  6 ep-00006 Aeroport tozeur                       2.25 C     AIR   <html [1]>  
#>  7 ep-00007 aeroport tunis cathage                3.58 C     AIR   <html [1]>  
#>  8 ep-00008 bouchebka                             4.25 C     BC    <html [1]>  
#>  9 ep-00009 dhehiba                               4.25 C     BC    <html [1]>  
#> 10 ep-00010 haidra                                4.25 C     BC    <html [1]>  
#> # ℹ 61 more rows
#> # ℹ 1 more variable: geometry <POINT [°]>
…
#> 
#> $agr
#>                   eu_id                 eu_name       entry_points_risk 
#>                    <NA>                    <NA>                    <NA> 
#> entry_points_risk_label 
#>                    <NA> 
#> Levels: constant aggregate identity
#> 
#> $points
#> Simple feature collection with 71 features and 6 fields
#> Geometry type: POINT
#> Dimension:     XY
#> Bounding box:  xmin: 7.572541 ymin: 31.94455 xmax: 11.59319 ymax: 37.26487
#> Geodetic CRS:  WGS 84
#> # A tibble: 71 × 7
#>    point_id point_name             point_emission_risk mode  type  points_label
#>    <chr>    <chr>                                <dbl> <chr> <chr> <list>      
#>  1 ep-00001 aeroport Djerba                       4.17 C     AIR   <html [1]>  
#>  2 ep-00002 aeroport enfidha                      3.31 C     AIR   <html [1]>  
#>  3 ep-00003 aeroport monastir                     3.75 C     AIR   <html [1]>  
#>  4 ep-00004 aeroport sfax                         3.17 C     AIR   <html [1]>  
#>  5 ep-00005 aeroport tabarka                      4    C     AIR   <html [1]>  
#>  6 ep-00006 Aeroport tozeur                       2.25 C     AIR   <html [1]>  
#>  7 ep-00007 aeroport tunis cathage                3.58 C     AIR   <html [1]>  
#>  8 ep-00008 bouchebka                             4.25 C     BC    <html [1]>  
#>  9 ep-00009 dhehiba                               4.25 C     BC    <html [1]>  
#> 10 ep-00010 haidra                                4.25 C     BC    <html [1]>  
#> # ℹ 61 more rows
#> # ℹ 1 more variable: geometry <POINT [°]>
…
