Calculate weighted border risk — calc_border_risk • riskintroanalysis
…
emission_risk_table <- calc_emission_risk(wahis_factors)

ri_border <- calc_border_risk(
  epi_units = tunisia,
  shared_borders = shared_borders,
  emission_risk = emission_risk_table
)
ri_border
#> Simple feature collection with 268 features and 4 fields
#> Geometry type: GEOMETRY
#> Dimension:     XY
#> Bounding box:  xmin: 7.530076 ymin: 30.23681 xmax: 11.59826 ymax: 37.55986
#> Geodetic CRS:  WGS 84
#> # A tibble: 268 × 5
#>    eu_id    eu_name            borders border_risk                      geometry
#>    <chr>    <chr>                <dbl>       <dbl>                <GEOMETRY [°]>
#>  1 eu-00001 Ariana Médina           NA           0 POLYGON ((10.13862 36.89432,…
#>  2 eu-00002 Ettadhamen              NA           0 POLYGON ((10.05623 36.84281,…
#>  3 eu-00003 Kalaat El Andalous      NA           0 MULTIPOLYGON (((10.13862 36.…
#>  4 eu-00004 Mnihla                  NA           0 POLYGON ((10.13109 36.88332,…
#>  5 eu-00005 Raoued                  NA           0 POLYGON ((10.17025 36.88844,…
#>  6 eu-00006 Sebkhet Ariana          NA           0 POLYGON ((10.27149 36.88916,…
#>  7 eu-00007 Sidi Thabet             NA           0 POLYGON ((10.00166 36.99815,…
#>  8 eu-00008 Soukra                  NA           0 POLYGON ((10.20232 36.85612,…
#>  9 eu-00009 Amdoun                  NA           0 POLYGON ((9.136977 36.87276,…
#> 10 eu-00010 Béja Nord               NA           0 POLYGON ((9.091034 36.70194,…
#> # ℹ 258 more rows
…
