Calculate animal mobility risk — calc_animal_mobility_risk • riskintroanalysis
…
extract_flow_risk(ri_animal_mobility)
#> Simple feature collection with 40 features and 3 fields
#> Geometry type: POINT
#> Dimension:     XY
#> Bounding box:  xmin: 7.66314 ymin: 31.97815 xmax: 11.3013 ymax: 37.26487
#> Geodetic CRS:  WGS 84
#> # A tibble: 40 × 4
#>    d_name                     geometry emission_risk_weighted source_label      
#>    <chr>                   <POINT [°]>                  <dbl> <chr>             
#>  1 AEROPORT DJERBA (10.77592 33.87149)                   4.5  <li>Mali (4.5/12)…
#>  2 AEROPORT SFAX   (10.68861 34.72056)                  NA    <li>Senegal (miss…
#>  3 POINT 4          (7.66314 33.53448)                  NA    NA                
#>  4 POINT 47        (10.67553 31.97815)                   4.5  <li>Mali (4.5/12)…
#>  5 PORT DE BIZERTE  (9.89047 37.26487)                  NA    <li>Peru (missing…
#>  6 PORT DE GABES   (10.11667 33.88333)                  NA    <li>Canada (missi…
#>  7 BOUJABEUR        (8.48696 35.70894)                   4.25 <li>Algeria (4.2/…
#>  8 HALIMA          (10.04415 36.39636)                   4.25 <li>Algeria (4.2/…
#>  9 ES-SRAIA          (8.46223 36.6186)                   4.25 <li>Algeria (4.2/…
#> 10 KHMAIRIA        (8.597894 36.76643)                   4.25 <li>Algeria (4.2/…
#> # ℹ 30 more rows
…
#> Levels: constant aggregate identity
#> 
#> $risk_col
#> [1] "animal_mobility_risk"
#> 
#> $table_name
#> [1] "animal_mobility"
#> 
#> $flows
#> Simple feature collection with 40 features and 3 fields
#> Geometry type: POINT
#> Dimension:     XY
#> Bounding box:  xmin: 7.66314 ymin: 31.97815 xmax: 11.3013 ymax: 37.26487
#> Geodetic CRS:  WGS 84
#> # A tibble: 40 × 4
#>    d_name                     geometry emission_risk_weighted source_label      
#>    <chr>                   <POINT [°]>                  <dbl> <chr>             
#>  1 AEROPORT DJERBA (10.77592 33.87149)                   4.5  <li>Mali (4.5/12)…
#>  2 AEROPORT SFAX   (10.68861 34.72056)                  NA    <li>Senegal (miss…
#>  3 POINT 4          (7.66314 33.53448)                  NA    NA                
#>  4 POINT 47        (10.67553 31.97815)                   4.5  <li>Mali (4.5/12)…
#>  5 PORT DE BIZERTE  (9.89047 37.26487)                  NA    <li>Peru (missing…
#>  6 PORT DE GABES   (10.11667 33.88333)                  NA    <li>Canada (missi…
#>  7 BOUJABEUR        (8.48696 35.70894)                   4.25 <li>Algeria (4.2/…
#>  8 HALIMA          (10.04415 36.39636)                   4.25 <li>Algeria (4.2/…
#>  9 ES-SRAIA          (8.46223 36.6186)                   4.25 <li>Algeria (4.2/…
#> 10 KHMAIRIA        (8.597894 36.76643)                   4.25 <li>Algeria (4.2/…
#> # ℹ 30 more rows
…
